C:\Users\claudia.moura\Desktop\staff\modulo3\AULA02\Petshop\src\main\java\br\com\dbc\petshop\service\AnimalService.java
C:\Users\claudia.moura\Desktop\staff\modulo3\AULA02\Petshop\src\main\java\br\com\dbc\petshop\Main.java
C:\Users\claudia.moura\Desktop\staff\modulo3\AULA02\Petshop\src\main\java\br\com\dbc\petshop\entity\Animal.java
C:\Users\claudia.moura\Desktop\staff\modulo3\AULA02\Petshop\src\main\java\br\com\dbc\petshop\entity\SexoType.java
C:\Users\claudia.moura\Desktop\staff\modulo3\AULA02\Petshop\src\main\java\br\com\dbc\petshop\entity\Cliente.java
C:\Users\claudia.moura\Desktop\staff\modulo3\AULA02\Petshop\src\main\java\br\com\dbc\petshop\entity\HibernateUtil.java
C:\Users\claudia.moura\Desktop\staff\modulo3\AULA02\Petshop\src\main\java\br\com\dbc\petshop\entity\PersistenceUtils.java
C:\Users\claudia.moura\Desktop\staff\modulo3\AULA02\Petshop\src\main\java\br\com\dbc\petshop\service\ClienteService.java
